[
    {
        "id": 1,
        "city": "طرابلس",
        "schoollist": [
            {
                "id": 1,
                "city_id": 1,
                "name": "الظهرة للبنين",
                "url": "https://midad.ly/demo/"
            },
            {
                "id": 2,
                "city_id": 1,
                "name": "مدرسة الرحيق",
                "url": "https://dev.midad.ly"
            },
            {
                "id": 3,
                "city_id": 1,
                "name": "مدرسة الحكمة",
                "url": "https://dev.midad.ly"
            }
        ]
    },
    {
        "id": 2,        
        "city": "بنغازي",
        "schoollist": [
            {
                "id": 4,
                "city_id": 2,
                "name": "البركة للبنات",
                "url": "https://dev.midad.ly"
            },
            {
                "id": 5,
                "city_id": 2,
                "name": "مدرسة الرحيق",
                "url": "https://dev.midad.ly"
            },
            {
                "id": 6,
                "city_id": 2,
                "name": "مدرسة الحكمة",
                "url": "https://dev.midad.ly"
            }
        ]
    }
]