<?xml version="1.0" encoding="UTF-8"?>
<!DOCTYPE svg PUBLIC "-//W3C//DTD SVG 1.1//EN" "http://www.w3.org/Graphics/SVG/1.1/DTD/svg11.dtd">
<!-- Creator: CorelDRAW 2018 (64-Bit) -->
<svg xmlns="http://www.w3.org/2000/svg" xml:space="preserve" width="52.9168mm" height="15.875mm" version="1.1" style="shape-rendering:geometricPrecision; text-rendering:geometricPrecision; image-rendering:optimizeQuality; fill-rule:evenodd; clip-rule:evenodd"
viewBox="0 0 909.38 272.81"
 xmlns:xlink="http://www.w3.org/1999/xlink">
 <defs>
  <style type="text/css">
   <![CDATA[
    .fil2 {fill:none}
    .fil0 {fill:white}
    .fil1 {fill:white;fill-rule:nonzero}
   ]]>
  </style>
 </defs>
 <g id="Layer_x0020_1">
  <metadata id="CorelCorpID_0Corel-Layer"/>
  <g id="_2361256250096">
   <path class="fil0" d="M574.8 99.22l0 0c17.92,0 32.59,14.66 32.59,32.59l0 55.17c0,19.79 -16.19,35.99 -35.99,35.99l-29.19 0 0 -91.16c0,-17.92 14.66,-32.59 32.59,-32.59z"/>
   <path class="fil0" d="M648.76 49.85l0 0c17.92,0 32.59,14.66 32.59,32.59l0 107.5c0,18.17 -14.87,33.04 -33.04,33.04l0 0c-17.67,0 -32.14,-14.46 -32.14,-32.14l0 -108.4c0,-17.92 14.66,-32.59 32.59,-32.59z"/>
   <path class="fil0" d="M726.12 49.85l29.19 0 0 140.54c0,17.92 -14.66,32.59 -32.59,32.59l-0 0c-17.92,0 -32.59,-14.66 -32.59,-32.59l0 -104.55c0,-19.79 16.2,-35.99 35.99,-35.99z"/>
   <path class="fil1" d="M154.08 149.43l4.88 -9.38 12.24 0c2.63,0 3.95,-1.52 3.95,-4.57 0,-5.73 -2.74,-10.13 -8.21,-13.17l4.8 -8.21c8.78,5.17 13.17,12.35 13.17,21.54 0,9.2 -3.98,13.79 -11.93,13.79l-18.91 0z"/>
   <polygon id="1" class="fil1" points="197.24,149.43 197.24,104.64 207.01,99.44 207.01,149.43 "/>
   <path id="2" class="fil1" d="M214.76 149.43l4.88 -9.38 12.24 0c2.63,0 3.95,-1.52 3.95,-4.57 0,-5.68 -2.74,-10.05 -8.21,-13.1l4.8 -8.29c8.06,4.7 12.4,11.08 13.02,19.14 0.21,2.58 0.79,4.37 1.74,5.35 0.96,0.98 2.59,1.47 4.92,1.47l5.89 0 0 9.38 -6.43 0c-3.82,0 -7.05,-1.06 -9.69,-3.18 -1.91,2.12 -4.65,3.18 -8.21,3.18l-18.91 0z"/>
   <polygon id="3" class="fil1" points="270.09,171.67 273.57,164.15 293.96,160.51 290.47,167.95 "/>
   <path id="4" class="fil1" d="M265.75 128.04c0,-4.65 1.45,-8.29 4.34,-10.93 2.53,-2.27 5.79,-3.41 9.76,-3.41 5.12,0 9.09,1.89 11.94,5.66 2.43,3.15 3.64,7.21 3.64,12.17 0,5.73 -1.52,10.26 -4.57,13.56 -2.74,2.89 -6.23,4.34 -10.46,4.34 -4.13,0 -7.52,-0.9 -10.15,-2.71 -2.48,1.81 -5.48,2.71 -8.99,2.71l-7.91 0 0 -9.38 6.98 0c1.96,0 3.36,-0.43 4.18,-1.28 0.83,-0.85 1.24,-2.29 1.24,-4.3l0 -6.43zm9.76 7.67c0,2.89 1.52,4.34 4.57,4.34 3.82,0 5.73,-2.95 5.73,-8.83 0,-5.63 -1.99,-8.45 -5.97,-8.45 -2.89,0 -4.34,1.7 -4.34,5.11l0 7.83z"/>
   <path id="5" class="fil1" d="M332.24 105.64c-1.55,0 -2.79,-0.47 -3.72,-1.4 -0.93,-0.93 -1.4,-2.19 -1.4,-3.8 0,-3.36 1.7,-5.04 5.11,-5.04 1.55,0 2.78,0.45 3.68,1.36 0.9,0.9 1.36,2.13 1.36,3.68 0,3.46 -1.68,5.19 -5.04,5.19zm11.94 0c-1.55,0 -2.79,-0.47 -3.72,-1.4 -0.93,-0.93 -1.4,-2.19 -1.4,-3.8 0,-3.36 1.7,-5.04 5.12,-5.04 1.55,0 2.78,0.45 3.68,1.36 0.91,0.9 1.36,2.13 1.36,3.68 0,3.46 -1.68,5.19 -5.04,5.19zm13.1 34.41l6.98 0 0 9.38 -7.91 0c-4.8,0 -8.52,-1.6 -11.16,-4.8 -2.22,1.7 -4.93,2.56 -8.14,2.56 -4.75,0 -8.55,-1.78 -11.39,-5.35 -2.33,-2.95 -3.49,-6.48 -3.49,-10.62 0,-5.11 1.65,-9.27 4.96,-12.48 2.79,-2.69 6.02,-4.03 9.69,-4.03 1.91,0 3.67,0.36 5.27,1.08l0 -2.01 9.69 -5.11 0 25.81c0,2.01 0.43,3.45 1.28,4.3 0.85,0.85 2.26,1.28 4.22,1.28zm-15.19 -14.49c-1.34,-1.14 -2.87,-1.7 -4.57,-1.7 -1.7,0 -3.09,0.7 -4.15,2.09 -1.06,1.39 -1.59,3.23 -1.59,5.5 0,2.27 0.52,4.08 1.55,5.43 1.03,1.34 2.45,2.01 4.26,2.01 1.96,0 3.49,-0.67 4.57,-2.01 -0.05,-0.41 -0.08,-1.06 -0.08,-1.94l0 -9.38z"/>
   <path id="6" class="fil1" d="M439.41 140.05l6.97 0 0 9.38 -7.9 0c-3.77,0 -6.9,-1.01 -9.38,-3.02 -2.48,2.02 -5.6,3.02 -9.38,3.02l-33.48 0c-3.77,0 -6.9,-1.01 -9.38,-3.02 -2.48,2.02 -5.61,3.02 -9.38,3.02l-7.91 0 0 -9.38 6.98 0c1.96,0 3.36,-0.43 4.18,-1.28 0.83,-0.85 1.24,-2.29 1.24,-4.3l0 -10.23 9.76 -5.11 0 15.34c0,3.31 1.32,5.14 3.95,5.5 2.48,-7.54 6.1,-13.67 10.85,-18.37 5.27,-5.27 11.31,-7.9 18.13,-7.9 6.1,0 10.98,2.12 14.65,6.35 3.1,3.57 4.65,7.98 4.65,13.25l0 1.63c0,3.41 1.81,5.12 5.43,5.12zm-20.07 0c1.86,0 3.14,-0.4 3.84,-1.2 0.7,-0.8 1.05,-2.29 1.05,-4.46l0 -1.09c0,-3.1 -0.88,-5.63 -2.64,-7.59 -1.76,-1.96 -4.03,-2.94 -6.82,-2.94 -4.03,0 -7.79,1.55 -11.28,4.65 -3.49,3.1 -6.24,7.31 -8.25,12.63l24.1 0z"/>
   <path id="7" class="fil1" d="M456.93 107.19c-1.55,0 -2.79,-0.47 -3.72,-1.4 -0.93,-0.93 -1.4,-2.2 -1.4,-3.8 0,-1.5 0.47,-2.71 1.4,-3.64 0.93,-0.93 2.17,-1.4 3.72,-1.4 1.55,0 2.78,0.45 3.68,1.36 0.9,0.9 1.36,2.13 1.36,3.68 0,3.46 -1.68,5.19 -5.04,5.19zm12.4 32.86l6.97 0 0 9.38 -7.9 0c-3.77,0 -6.9,-1.01 -9.38,-3.02 -2.48,2.02 -5.61,3.02 -9.38,3.02l-7.91 0 0 -9.38 6.98 0c1.96,0 3.36,-0.43 4.18,-1.28 0.83,-0.85 1.24,-2.29 1.24,-4.3l0 -14.34 9.76 -5.11 0 19.45c0,2.01 0.41,3.45 1.24,4.3 0.83,0.85 2.22,1.28 4.18,1.28z"/>
   <path id="8" class="fil1" d="M484.05 128.04c0,-4.65 1.45,-8.29 4.34,-10.93 2.53,-2.27 5.79,-3.41 9.76,-3.41 5.12,0 9.09,1.89 11.94,5.66 2.43,3.15 3.64,7.21 3.64,12.17 0,5.73 -1.52,10.26 -4.57,13.56 -2.74,2.89 -6.23,4.34 -10.46,4.34 -4.13,0 -7.52,-0.9 -10.15,-2.71 -2.48,1.81 -5.48,2.71 -8.99,2.71l-7.91 0 0 -9.38 6.98 0c1.96,0 3.36,-0.43 4.18,-1.28 0.83,-0.85 1.24,-2.29 1.24,-4.3l0 -6.43zm9.76 7.67c0,2.89 1.52,4.34 4.57,4.34 3.82,0 5.73,-2.95 5.73,-8.83 0,-5.63 -1.99,-8.45 -5.97,-8.45 -2.89,0 -4.34,1.7 -4.34,5.11l0 7.83z"/>
   <path class="fil1" d="M161.96 185.64c-1.29,0 -1.94,-0.66 -1.94,-1.98 0,-1.26 0.65,-1.89 1.94,-1.89 1.23,0 1.84,0.63 1.84,1.89 0,1.32 -0.61,1.98 -1.84,1.98zm5.38 0c-1.29,0 -1.94,-0.66 -1.94,-1.98 0,-1.26 0.64,-1.89 1.94,-1.89 1.23,0 1.84,0.63 1.84,1.89 0,1.32 -0.61,1.98 -1.84,1.98zm9.15 23.74l1.61 0 0 2.92 -2.03 0c-3.37,0 -5.71,-1.32 -7.03,-3.96 -1.63,1.7 -3.65,2.55 -6.04,2.55 -2.71,0 -4.85,-1.02 -6.42,-3.07 -1.32,-1.73 -1.98,-3.89 -1.98,-6.47 0,-3.02 0.88,-5.44 2.64,-7.27 1.54,-1.6 3.45,-2.41 5.71,-2.41 2.05,0 3.76,0.6 5.14,1.79l0 -2.55 3.16 -1.65 0 14.72c0,3.59 1.75,5.38 5.24,5.38zm-8.4 -12.32c-1.38,-1.67 -3.07,-2.5 -5.05,-2.5 -1.57,0 -2.85,0.64 -3.85,1.91 -0.99,1.28 -1.49,2.92 -1.49,4.93 0,2.05 0.49,3.68 1.49,4.91 0.99,1.23 2.29,1.84 3.89,1.84 2.05,0 3.74,-0.9 5.1,-2.69 -0.06,-0.57 -0.09,-1.02 -0.09,-1.37l0 -7.03zm24.26 12.32l1.65 0 0 2.92 -2.03 0c-2.83,0 -4.96,-0.96 -6.37,-2.88 -1.48,1.92 -3.62,2.88 -6.42,2.88l-2.03 0 0 -2.92 1.65 0c3.46,0 5.19,-1.79 5.19,-5.38l0 -10.24 3.16 -1.65 0 11.89c0,3.59 1.73,5.38 5.19,5.38zm-10.71 7.88c1.26,0 1.89,0.64 1.89,1.94 0,1.29 -0.63,1.94 -1.89,1.94 -1.26,0 -1.89,-0.65 -1.89,-1.94 0,-1.29 0.63,-1.94 1.89,-1.94zm5.38 0c1.26,0 1.89,0.64 1.89,1.94 0,1.29 -0.63,1.94 -1.89,1.94 -1.26,0 -1.89,-0.65 -1.89,-1.94 0,-1.29 0.63,-1.94 1.89,-1.94zm14.25 -31.38c-1.29,0 -1.94,-0.66 -1.94,-1.98 0,-1.26 0.65,-1.89 1.94,-1.89 1.23,0 1.84,0.63 1.84,1.89 0,1.32 -0.61,1.98 -1.84,1.98zm-8.21 26.43l0 -2.92 1.65 0c3.46,0 5.19,-1.79 5.19,-5.38l0 -10.24 3.16 -1.65 0 11.99c0,2.64 -0.77,4.7 -2.31,6.18 -1.42,1.35 -3.3,2.03 -5.66,2.03l-2.03 0zm30.58 -1.75c-1.32,0.76 -3.02,1.13 -5.1,1.13 -2.74,0 -4.88,-1.05 -6.42,-3.16 -1.32,-1.79 -1.98,-4.06 -1.98,-6.8 0,-3.3 0.88,-5.88 2.64,-7.74 1.54,-1.63 3.59,-2.45 6.14,-2.45 2.61,0 4.62,0.82 6.04,2.45 1.23,1.42 1.84,3.3 1.84,5.66l0 10.38c0,2.93 -0.61,5.34 -1.84,7.24 -1.23,1.9 -2.97,3.12 -5.24,3.66 -0.75,0.22 -1.57,0.33 -2.45,0.33 -1.83,0 -3.6,-0.44 -5.33,-1.32l0 -2.78c1.64,0.88 3.26,1.32 4.86,1.32 1.29,0 2.42,-0.28 3.4,-0.85 2.2,-1.1 3.35,-3.46 3.45,-7.08zm0 -10.62c0,-3.68 -1.57,-5.52 -4.72,-5.52 -1.76,0 -3.15,0.64 -4.18,1.93 -1.02,1.29 -1.53,3.07 -1.53,5.33 0,2.2 0.49,3.96 1.46,5.26 0.98,1.3 2.3,1.96 3.96,1.96 2.48,0 4.15,-0.69 5,-2.08l0 -6.89zm22.6 9.44c-3.46,0 -5.19,-1.79 -5.19,-5.38l0 -11.89 -0.05 0.05 0 -0.05 -3.12 1.65 0 16.47c0,3.62 -1.1,6.09 -3.3,7.41 -1.01,0.6 -2.17,0.9 -3.49,0.9 -1.67,0 -3.3,-0.44 -4.91,-1.32l0 2.79c1.7,0.88 3.46,1.32 5.28,1.32 1.13,0 2.2,-0.17 3.21,-0.52 3.96,-1.39 6.07,-4.69 6.32,-9.91 1.29,0.94 2.91,1.41 4.86,1.41l2.03 0 0 -2.92 -1.65 0zm8.54 -23.36c-1.26,0 -1.89,-0.64 -1.89,-1.93 0,-1.29 0.63,-1.94 1.89,-1.94 1.26,0 1.89,0.64 1.89,1.94 0,1.29 -0.63,1.93 -1.89,1.93zm5.38 0c-1.26,0 -1.89,-0.64 -1.89,-1.93 0,-1.29 0.63,-1.94 1.89,-1.94 1.26,0 1.89,0.64 1.89,1.94 0,1.29 -0.63,1.93 -1.89,1.93zm5.05 23.36c-3.46,0 -5.19,-1.79 -5.19,-5.38l0 -11.89 -3.16 1.65 0 10.24c0,3.58 -1.73,5.38 -5.19,5.38l-3.75 0 0 2.92 4.13 0c2.8,0 4.94,-0.96 6.42,-2.88 1.42,1.92 3.54,2.88 6.37,2.88l2.03 0 0 -2.92 -1.65 0zm25.77 0l1.18 0 0 2.92 -1.56 0c-2.83,0 -4.95,-0.96 -6.37,-2.88 -1.42,1.92 -3.56,2.88 -6.42,2.88l-11.89 0 0 -2.92 11.56 0c3.43,0 5.14,-1.84 5.14,-5.52l0 -0.47c0,-2.58 -0.94,-4.52 -2.83,-5.81 -1.51,-1.07 -3.4,-1.61 -5.66,-1.61 -1.7,0 -3.38,0.3 -5.05,0.9l0 -3.11 10.71 -11.89 3.26 0 -9.67 10.95c0.31,-0.03 0.64,-0.05 0.99,-0.05 3.02,0 5.54,0.77 7.55,2.31 2.58,1.98 3.87,4.74 3.87,8.26l0 0.66c0,3.59 1.73,5.38 5.19,5.38zm0.24 2.92l0 -2.92 1.32 0c3.59,0 5.38,-1.86 5.38,-5.57l0 -20.29 3.16 -1.65 0 21.99c0,2.67 -0.79,4.78 -2.36,6.32 -1.48,1.41 -3.43,2.12 -5.85,2.12l-1.65 0zm35.58 -28.79l3.12 -1.65 0 21.99c0,2.67 -0.79,4.78 -2.36,6.32 -1.45,1.41 -3.38,2.12 -5.8,2.12l-15.48 0 1.51 -2.92 7.22 0 0 -19.73 3.11 -1.65 0 21.38 3.3 0c3.59,0 5.38,-1.86 5.38,-5.57l0 -20.29zm-7.88 35.21c-0.63,-0.47 -1.24,-0.71 -1.84,-0.71 -0.5,0 -0.93,0.17 -1.27,0.5 -0.35,0.33 -0.52,0.71 -0.52,1.15 0,0.54 0.22,1.07 0.66,1.61l4.15 0 -0.9 1.7 -7.31 0 0.9 -1.7 1.23 0c-0.31,-0.57 -0.47,-1.13 -0.47,-1.7 0,-0.88 0.33,-1.64 0.99,-2.29 0.66,-0.64 1.45,-0.97 2.36,-0.97 0.69,0 1.37,0.2 2.03,0.61l0 1.79zm19.49 -6.42l0 -28.79 3.16 -1.65 0 30.44 -3.16 0zm27.51 -26.66c-1.29,0 -1.93,-0.66 -1.93,-1.98 0,-1.26 0.64,-1.89 1.93,-1.89 1.23,0 1.84,0.63 1.84,1.89 0,1.32 -0.61,1.98 -1.84,1.98zm5.38 0c-1.29,0 -1.94,-0.66 -1.94,-1.98 0,-1.26 0.64,-1.89 1.94,-1.89 1.23,0 1.84,0.63 1.84,1.89 0,1.32 -0.61,1.98 -1.84,1.98zm9.16 23.74l1.6 0 0 2.92 -2.03 0c-3.36,0 -5.71,-1.32 -7.03,-3.96 -1.64,1.7 -3.65,2.55 -6.04,2.55 -2.71,0 -4.85,-1.02 -6.42,-3.07 -1.32,-1.73 -1.98,-3.89 -1.98,-6.47 0,-3.02 0.88,-5.44 2.64,-7.27 1.54,-1.6 3.44,-2.41 5.71,-2.41 2.05,0 3.76,0.6 5.14,1.79l0 -2.55 3.16 -1.65 0 14.72c0,3.59 1.75,5.38 5.24,5.38zm-8.4 -12.32c-1.38,-1.67 -3.07,-2.5 -5.05,-2.5 -1.57,0 -2.85,0.64 -3.85,1.91 -0.99,1.28 -1.49,2.92 -1.49,4.93 0,2.05 0.49,3.68 1.49,4.91 0.99,1.23 2.29,1.84 3.89,1.84 2.05,0 3.74,-0.9 5.1,-2.69 -0.06,-0.57 -0.09,-1.02 -0.09,-1.37l0 -7.03zm9.06 15.24l0 -2.92 2.88 0c3.49,0 5.24,-1.79 5.24,-5.38l0 -6.8 3.16 -1.65 0 8.45c0,3.59 1.73,5.38 5.19,5.38l1.75 0c3.46,0 5.19,-1.79 5.19,-5.38l0 -8.49 3.16 -1.7 0 10.19c0,3.59 1.75,5.38 5.24,5.38l1.7 0c3.49,0 5.24,-1.79 5.24,-5.38l0 -10.24 3.16 -1.65 0 11.99c0,2.61 -0.77,4.66 -2.31,6.14 -1.38,1.35 -3.26,2.05 -5.62,2.08l-2.59 0c-2.93,0 -5.05,-1.04 -6.37,-3.11 -1.35,2.08 -3.46,3.11 -6.32,3.11l-2.6 0c-2.92,0 -5.06,-1.04 -6.42,-3.11 -1.32,2.08 -3.45,3.11 -6.37,3.11l-3.3 0zm56.58 -2.27c0,5.73 -2.11,9.31 -6.32,10.76 -1.01,0.35 -2.08,0.52 -3.21,0.52 -1.83,0 -3.59,-0.44 -5.29,-1.32l0 -2.79c1.61,0.88 3.24,1.32 4.91,1.32 1.32,0 2.48,-0.3 3.49,-0.9 2.2,-1.32 3.3,-3.79 3.3,-7.41l0 -16.47 3.11 -1.65 0 17.93zm4.72 2.27l1.51 -2.92 8.87 0c1.45,0 2.46,-0.36 3.04,-1.09 0.58,-0.72 0.87,-1.98 0.87,-3.77 0,-4.63 -2.03,-8.07 -6.09,-10.34l1.56 -2.59c5,2.89 7.55,6.97 7.64,12.22 0.03,3.71 1.84,5.57 5.43,5.57l1.46 0 0 2.92 -1.79 0c-2.74,0 -4.83,-0.91 -6.28,-2.74 -1.07,1.83 -2.85,2.74 -5.33,2.74l-10.9 0zm53.04 -2.92l1.6 0 0 2.92 -2.03 0c-2.86,0 -5,-0.99 -6.42,-2.97 -1.57,2.61 -3.96,3.92 -7.17,3.92 -3.24,0 -5.63,-1.29 -7.17,-3.87 -1.45,1.95 -3.6,2.92 -6.47,2.92l-2.03 0 0 -2.92 1.65 0c3.46,0 5.19,-1.79 5.19,-5.38l0 -1.6c0,-3.62 0.88,-6.39 2.64,-8.31 1.54,-1.7 3.6,-2.55 6.18,-2.55 2.96,0 5.21,1.1 6.75,3.3 1.35,1.89 2.03,4.4 2.03,7.55l0 1.6c0,3.59 1.75,5.38 5.24,5.38zm-14.02 0.94c1.73,0 3.1,-0.71 4.11,-2.15 1.01,-1.43 1.51,-3.37 1.51,-5.83 0,-5.28 -1.87,-7.93 -5.62,-7.93 -3.78,0 -5.66,2.64 -5.66,7.93 0,5.32 1.89,7.98 5.66,7.98zm14.68 1.98l0 -2.92 1.32 0c3.59,0 5.38,-1.86 5.38,-5.57l0 -20.29 3.16 -1.65 0 21.99c0,2.67 -0.79,4.78 -2.36,6.32 -1.48,1.41 -3.43,2.12 -5.85,2.12l-1.65 0zm18.36 0l0 -28.79 3.16 -1.65 0 30.44 -3.16 0z"/>
   <rect class="fil2" x="0" y="-0" width="909.38" height="272.81"/>
  </g>
 </g>
</svg>
