<?xml version="1.0" encoding="UTF-8"?>
<!DOCTYPE svg PUBLIC "-//W3C//DTD SVG 1.1//EN" "http://www.w3.org/Graphics/SVG/1.1/DTD/svg11.dtd">
<!-- Creator: CorelDRAW 2018 (64-Bit) -->
<svg xmlns="http://www.w3.org/2000/svg" xml:space="preserve" width="52.9168mm" height="15.875mm" version="1.1" style="shape-rendering:geometricPrecision; text-rendering:geometricPrecision; image-rendering:optimizeQuality; fill-rule:evenodd; clip-rule:evenodd"
viewBox="0 0 913.82 274.15"
 xmlns:xlink="http://www.w3.org/1999/xlink">
 <defs>
  <style type="text/css">
   <![CDATA[
    .fil3 {fill:none}
    .fil0 {fill:#BD3737}
    .fil1 {fill:#333333;fill-rule:nonzero}
    .fil2 {fill:#BD3737;fill-rule:nonzero}
   ]]>
  </style>
 </defs>
 <g id="Layer_x0020_1">
  <metadata id="CorelCorpID_0Corel-Layer"/>
  <g id="_2361180661936">
   <g>
    <g>
     <path class="fil0" d="M577.61 99.7l0 0c18.01,0 32.75,14.74 32.75,32.75l0 55.44c0,19.89 -16.27,36.16 -36.16,36.16l-29.33 0 0 -91.61c0,-18.01 14.73,-32.75 32.75,-32.75z"/>
     <path class="fil0" d="M651.92 50.09l0 0c18.01,0 32.75,14.74 32.75,32.75l0 108.02c0,18.26 -14.94,33.2 -33.2,33.2l0 0c-17.76,0 -32.29,-14.53 -32.29,-32.29l0 -108.93c0,-18.01 14.74,-32.75 32.75,-32.75z"/>
     <path class="fil0" d="M729.66 50.09l29.33 0 0 141.22c0,18.01 -14.74,32.75 -32.75,32.75l-0 0c-18.01,0 -32.75,-14.74 -32.75,-32.75l0 -105.06c0,-19.89 16.27,-36.16 36.16,-36.16z"/>
    </g>
    <path class="fil1" d="M154.83 150.16l4.91 -9.42 12.3 0c2.65,0 3.97,-1.53 3.97,-4.6 0,-5.76 -2.75,-10.17 -8.25,-13.24l4.83 -8.25c8.83,5.19 13.24,12.41 13.24,21.65 0,9.24 -4,13.86 -11.99,13.86l-19 0z"/>
    <polygon id="1" class="fil1" points="198.2,150.16 198.2,105.15 208.02,99.93 208.02,150.16 "/>
    <path id="2" class="fil1" d="M215.8 150.16l4.91 -9.42 12.3 0c2.65,0 3.97,-1.53 3.97,-4.6 0,-5.71 -2.75,-10.1 -8.25,-13.16l4.83 -8.33c8.1,4.72 12.46,11.14 13.08,19.23 0.21,2.6 0.79,4.39 1.75,5.37 0.96,0.99 2.61,1.48 4.94,1.48l5.92 0 0 9.42 -6.46 0c-3.84,0 -7.09,-1.06 -9.73,-3.19 -1.92,2.13 -4.67,3.19 -8.25,3.19l-19 0z"/>
    <polygon id="3" class="fil1" points="271.4,172.51 274.91,164.95 295.39,161.29 291.89,168.77 "/>
    <path id="4" class="fil1" d="M267.04 128.66c0,-4.67 1.45,-8.33 4.36,-10.98 2.55,-2.28 5.82,-3.43 9.81,-3.43 5.14,0 9.14,1.89 11.99,5.68 2.44,3.17 3.66,7.24 3.66,12.22 0,5.76 -1.53,10.31 -4.59,13.63 -2.75,2.91 -6.26,4.36 -10.51,4.36 -4.15,0 -7.55,-0.91 -10.2,-2.73 -2.49,1.82 -5.5,2.73 -9.03,2.73l-7.94 0 0 -9.42 7.01 0c1.97,0 3.37,-0.43 4.2,-1.28 0.83,-0.86 1.25,-2.3 1.25,-4.32l0 -6.46zm9.81 7.71c0,2.91 1.53,4.36 4.6,4.36 3.84,0 5.76,-2.96 5.76,-8.88 0,-5.66 -2,-8.49 -6,-8.49 -2.91,0 -4.36,1.71 -4.36,5.14l0 7.86z"/>
    <path id="5" class="fil1" d="M333.86 106.16c-1.56,0 -2.8,-0.47 -3.74,-1.4 -0.94,-0.93 -1.4,-2.21 -1.4,-3.81 0,-3.37 1.71,-5.06 5.14,-5.06 1.56,0 2.79,0.46 3.7,1.36 0.91,0.91 1.36,2.14 1.36,3.7 0,3.48 -1.69,5.22 -5.06,5.22zm11.99 0c-1.56,0 -2.8,-0.47 -3.74,-1.4 -0.93,-0.93 -1.4,-2.21 -1.4,-3.81 0,-3.37 1.71,-5.06 5.14,-5.06 1.56,0 2.79,0.46 3.7,1.36 0.91,0.91 1.36,2.14 1.36,3.7 0,3.48 -1.69,5.22 -5.06,5.22zm13.16 34.58l7.01 0 0 9.42 -7.94 0c-4.83,0 -8.57,-1.61 -11.21,-4.83 -2.23,1.71 -4.96,2.57 -8.18,2.57 -4.78,0 -8.59,-1.79 -11.45,-5.37 -2.34,-2.96 -3.5,-6.52 -3.5,-10.67 0,-5.14 1.66,-9.32 4.98,-12.54 2.8,-2.7 6.05,-4.05 9.73,-4.05 1.92,0 3.69,0.36 5.29,1.09l0 -2.02 9.73 -5.14 0 25.93c0,2.02 0.43,3.47 1.28,4.32 0.86,0.86 2.27,1.28 4.24,1.28zm-15.26 -14.56c-1.35,-1.14 -2.88,-1.71 -4.6,-1.71 -1.71,0 -3.1,0.7 -4.17,2.1 -1.06,1.4 -1.6,3.24 -1.6,5.53 0,2.28 0.52,4.1 1.56,5.45 1.04,1.35 2.47,2.02 4.28,2.02 1.97,0 3.5,-0.68 4.59,-2.02 -0.05,-0.42 -0.08,-1.07 -0.08,-1.95l0 -9.42z"/>
    <path id="6" class="fil1" d="M441.56 140.74l7.01 0 0 9.42 -7.94 0c-3.79,0 -6.93,-1.01 -9.42,-3.04 -2.49,2.03 -5.63,3.04 -9.42,3.04l-33.64 0c-3.79,0 -6.93,-1.01 -9.42,-3.04 -2.49,2.03 -5.63,3.04 -9.42,3.04l-7.94 0 0 -9.42 7.01 0c1.97,0 3.37,-0.43 4.2,-1.28 0.83,-0.86 1.25,-2.3 1.25,-4.32l0 -10.28 9.81 -5.14 0 15.42c0,3.32 1.32,5.17 3.97,5.53 2.49,-7.58 6.13,-13.73 10.9,-18.46 5.29,-5.29 11.37,-7.94 18.22,-7.94 6.13,0 11.03,2.13 14.72,6.38 3.12,3.58 4.67,8.02 4.67,13.32l0 1.64c0,3.43 1.82,5.14 5.45,5.14zm-20.17 0c1.87,0 3.15,-0.4 3.85,-1.21 0.7,-0.8 1.05,-2.3 1.05,-4.48l0 -1.09c0,-3.11 -0.88,-5.66 -2.65,-7.63 -1.76,-1.97 -4.05,-2.96 -6.85,-2.96 -4.05,0 -7.83,1.56 -11.33,4.67 -3.5,3.12 -6.27,7.35 -8.29,12.69l24.22 0z"/>
    <path id="7" class="fil1" d="M459.16 107.72c-1.56,0 -2.8,-0.47 -3.74,-1.4 -0.93,-0.93 -1.4,-2.21 -1.4,-3.82 0,-1.5 0.47,-2.73 1.4,-3.66 0.93,-0.93 2.18,-1.4 3.74,-1.4 1.56,0 2.79,0.45 3.7,1.36 0.91,0.91 1.36,2.14 1.36,3.7 0,3.48 -1.69,5.22 -5.06,5.22zm12.46 33.02l7.01 0 0 9.42 -7.94 0c-3.79,0 -6.93,-1.01 -9.42,-3.04 -2.49,2.03 -5.63,3.04 -9.42,3.04l-7.94 0 0 -9.42 7.01 0c1.97,0 3.37,-0.43 4.2,-1.28 0.83,-0.86 1.25,-2.3 1.25,-4.32l0 -14.41 9.81 -5.14 0 19.55c0,2.02 0.42,3.47 1.25,4.32 0.83,0.86 2.23,1.28 4.2,1.28z"/>
    <path id="8" class="fil1" d="M486.41 128.66c0,-4.67 1.45,-8.33 4.36,-10.98 2.55,-2.28 5.82,-3.43 9.81,-3.43 5.14,0 9.14,1.89 11.99,5.68 2.44,3.17 3.66,7.24 3.66,12.22 0,5.76 -1.53,10.31 -4.59,13.63 -2.75,2.91 -6.26,4.36 -10.51,4.36 -4.15,0 -7.55,-0.91 -10.2,-2.73 -2.49,1.82 -5.5,2.73 -9.03,2.73l-7.94 0 0 -9.42 7.01 0c1.97,0 3.37,-0.43 4.2,-1.28 0.83,-0.86 1.25,-2.3 1.25,-4.32l0 -6.46zm9.81 7.71c0,2.91 1.53,4.36 4.6,4.36 3.84,0 5.76,-2.96 5.76,-8.88 0,-5.66 -2,-8.49 -6,-8.49 -2.91,0 -4.36,1.71 -4.36,5.14l0 7.86z"/>
    <path class="fil2" d="M162.75 186.55c-1.3,0 -1.94,-0.66 -1.94,-1.99 0,-1.27 0.65,-1.9 1.94,-1.9 1.23,0 1.85,0.63 1.85,1.9 0,1.33 -0.62,1.99 -1.85,1.99zm5.41 0c-1.3,0 -1.94,-0.66 -1.94,-1.99 0,-1.27 0.65,-1.9 1.94,-1.9 1.23,0 1.85,0.63 1.85,1.9 0,1.33 -0.62,1.99 -1.85,1.99zm9.2 23.85l1.61 0 0 2.94 -2.04 0c-3.38,0 -5.74,-1.33 -7.07,-3.98 -1.64,1.71 -3.67,2.56 -6.07,2.56 -2.72,0 -4.87,-1.03 -6.45,-3.08 -1.33,-1.74 -1.99,-3.9 -1.99,-6.5 0,-3.03 0.89,-5.47 2.66,-7.3 1.55,-1.61 3.46,-2.42 5.74,-2.42 2.06,0 3.78,0.6 5.17,1.8l0 -2.56 3.18 -1.66 0 14.79c0,3.6 1.75,5.41 5.26,5.41zm-8.44 -12.38c-1.39,-1.68 -3.08,-2.51 -5.07,-2.51 -1.58,0 -2.87,0.64 -3.86,1.92 -1,1.28 -1.49,2.93 -1.49,4.96 0,2.06 0.5,3.7 1.49,4.93 1,1.23 2.3,1.85 3.91,1.85 2.06,0 3.76,-0.9 5.12,-2.7 -0.06,-0.57 -0.09,-1.03 -0.09,-1.38l0 -7.06zm24.38 12.38l1.66 0 0 2.94 -2.04 0c-2.85,0 -4.98,-0.96 -6.4,-2.89 -1.49,1.93 -3.64,2.89 -6.45,2.89l-2.04 0 0 -2.94 1.66 0c3.48,0 5.22,-1.8 5.22,-5.41l0 -10.29 3.18 -1.66 0 11.95c0,3.6 1.74,5.41 5.22,5.41zm-10.76 7.92c1.26,0 1.9,0.65 1.9,1.94 0,1.3 -0.63,1.94 -1.9,1.94 -1.26,0 -1.9,-0.65 -1.9,-1.94 0,-1.3 0.63,-1.94 1.9,-1.94zm5.41 0c1.27,0 1.9,0.65 1.9,1.94 0,1.3 -0.63,1.94 -1.9,1.94 -1.26,0 -1.9,-0.65 -1.9,-1.94 0,-1.3 0.63,-1.94 1.9,-1.94zm14.32 -31.54c-1.3,0 -1.94,-0.66 -1.94,-1.99 0,-1.26 0.65,-1.9 1.94,-1.9 1.23,0 1.85,0.63 1.85,1.9 0,1.33 -0.62,1.99 -1.85,1.99zm-8.25 26.56l0 -2.94 1.66 0c3.48,0 5.22,-1.8 5.22,-5.41l0 -10.29 3.18 -1.66 0 12.05c0,2.66 -0.77,4.73 -2.32,6.21 -1.42,1.36 -3.32,2.04 -5.69,2.04l-2.04 0zm30.73 -1.75c-1.33,0.76 -3.03,1.14 -5.12,1.14 -2.75,0 -4.9,-1.06 -6.45,-3.18 -1.33,-1.8 -1.99,-4.08 -1.99,-6.83 0,-3.32 0.89,-5.91 2.66,-7.78 1.55,-1.64 3.6,-2.46 6.17,-2.46 2.62,0 4.65,0.82 6.07,2.46 1.23,1.42 1.85,3.32 1.85,5.69l0 10.43c0,2.94 -0.62,5.37 -1.85,7.28 -1.23,1.91 -2.99,3.14 -5.27,3.68 -0.76,0.22 -1.58,0.33 -2.46,0.33 -1.83,0 -3.62,-0.44 -5.36,-1.33l0 -2.8c1.64,0.88 3.27,1.33 4.89,1.33 1.3,0 2.43,-0.28 3.41,-0.85 2.21,-1.11 3.37,-3.48 3.46,-7.11zm0 -10.67c0,-3.7 -1.58,-5.55 -4.74,-5.55 -1.77,0 -3.17,0.65 -4.2,1.94 -1.03,1.3 -1.54,3.08 -1.54,5.36 0,2.21 0.49,3.98 1.47,5.29 0.98,1.31 2.31,1.97 3.98,1.97 2.5,0 4.17,-0.69 5.03,-2.09l0 -6.92zm22.71 9.48c-3.48,0 -5.22,-1.8 -5.22,-5.41l0 -11.95 -0.05 0.05 0 -0.05 -3.13 1.66 0 16.55c0,3.64 -1.11,6.12 -3.32,7.45 -1.01,0.6 -2.18,0.9 -3.51,0.9 -1.68,0 -3.32,-0.44 -4.93,-1.33l0 2.8c1.71,0.88 3.48,1.33 5.31,1.33 1.14,0 2.21,-0.17 3.23,-0.52 3.98,-1.39 6.1,-4.71 6.35,-9.96 1.3,0.95 2.92,1.42 4.88,1.42l2.04 0 0 -2.94 -1.66 0zm8.58 -23.48c-1.26,0 -1.9,-0.65 -1.9,-1.94 0,-1.3 0.63,-1.94 1.9,-1.94 1.27,0 1.9,0.65 1.9,1.94 0,1.3 -0.63,1.94 -1.9,1.94zm5.41 0c-1.26,0 -1.9,-0.65 -1.9,-1.94 0,-1.3 0.63,-1.94 1.9,-1.94 1.26,0 1.9,0.65 1.9,1.94 0,1.3 -0.63,1.94 -1.9,1.94zm5.07 23.48c-3.48,0 -5.22,-1.8 -5.22,-5.41l0 -11.95 -3.18 1.66 0 10.29c0,3.6 -1.74,5.41 -5.22,5.41l-3.77 0 0 2.94 4.15 0c2.81,0 4.96,-0.96 6.45,-2.89 1.42,1.93 3.56,2.89 6.4,2.89l2.04 0 0 -2.94 -1.66 0zm25.89 0l1.18 0 0 2.94 -1.56 0c-2.85,0 -4.98,-0.96 -6.4,-2.89 -1.42,1.93 -3.57,2.89 -6.45,2.89l-11.95 0 0 -2.94 11.62 0c3.45,0 5.17,-1.85 5.17,-5.55l0 -0.47c0,-2.59 -0.95,-4.54 -2.85,-5.83 -1.52,-1.08 -3.41,-1.61 -5.69,-1.61 -1.71,0 -3.4,0.3 -5.07,0.9l0 -3.13 10.76 -11.95 3.27 0 -9.72 11c0.32,-0.03 0.65,-0.05 1,-0.05 3.03,0 5.56,0.77 7.59,2.32 2.59,1.99 3.89,4.76 3.89,8.3l0 0.66c0,3.6 1.74,5.41 5.22,5.41zm0.24 2.94l0 -2.94 1.33 0c3.61,0 5.41,-1.87 5.41,-5.6l0 -20.39 3.18 -1.66 0 22.1c0,2.69 -0.79,4.81 -2.37,6.35 -1.49,1.42 -3.45,2.13 -5.88,2.13l-1.66 0zm35.76 -28.93l3.13 -1.66 0 22.1c0,2.69 -0.79,4.81 -2.37,6.35 -1.45,1.42 -3.4,2.13 -5.83,2.13l-15.55 0 1.52 -2.94 7.26 0 0 -19.82 3.13 -1.66 0 21.48 3.32 0c3.6,0 5.41,-1.87 5.41,-5.6l0 -20.39zm-7.92 35.38c-0.63,-0.47 -1.25,-0.71 -1.85,-0.71 -0.51,0 -0.93,0.17 -1.28,0.5 -0.35,0.33 -0.52,0.72 -0.52,1.16 0,0.54 0.22,1.08 0.66,1.61l4.17 0 -0.9 1.71 -7.35 0 0.9 -1.71 1.23 0c-0.32,-0.57 -0.47,-1.14 -0.47,-1.71 0,-0.88 0.33,-1.65 0.99,-2.3 0.66,-0.65 1.45,-0.97 2.37,-0.97 0.7,0 1.38,0.2 2.04,0.62l0 1.8zm19.59 -6.45l0 -28.93 3.18 -1.66 0 30.59 -3.18 0zm27.65 -26.79c-1.3,0 -1.94,-0.66 -1.94,-1.99 0,-1.27 0.65,-1.9 1.94,-1.9 1.23,0 1.85,0.63 1.85,1.9 0,1.33 -0.62,1.99 -1.85,1.99zm5.41 0c-1.3,0 -1.94,-0.66 -1.94,-1.99 0,-1.27 0.65,-1.9 1.94,-1.9 1.23,0 1.85,0.63 1.85,1.9 0,1.33 -0.62,1.99 -1.85,1.99zm9.2 23.85l1.61 0 0 2.94 -2.04 0c-3.38,0 -5.74,-1.33 -7.06,-3.98 -1.64,1.71 -3.67,2.56 -6.07,2.56 -2.72,0 -4.87,-1.03 -6.45,-3.08 -1.33,-1.74 -1.99,-3.9 -1.99,-6.5 0,-3.03 0.89,-5.47 2.66,-7.3 1.55,-1.61 3.46,-2.42 5.74,-2.42 2.06,0 3.78,0.6 5.17,1.8l0 -2.56 3.18 -1.66 0 14.79c0,3.6 1.75,5.41 5.27,5.41zm-8.44 -12.38c-1.39,-1.68 -3.08,-2.51 -5.07,-2.51 -1.58,0 -2.87,0.64 -3.86,1.92 -1,1.28 -1.49,2.93 -1.49,4.96 0,2.06 0.5,3.7 1.49,4.93 1,1.23 2.3,1.85 3.91,1.85 2.06,0 3.76,-0.9 5.12,-2.7 -0.06,-0.57 -0.09,-1.03 -0.09,-1.38l0 -7.06zm9.11 15.32l0 -2.94 2.89 0c3.51,0 5.26,-1.8 5.26,-5.41l0 -6.83 3.18 -1.66 0 8.49c0,3.6 1.74,5.41 5.22,5.41l1.75 0c3.48,0 5.22,-1.8 5.22,-5.41l0 -8.54 3.18 -1.71 0 10.24c0,3.6 1.75,5.41 5.26,5.41l1.71 0c3.51,0 5.26,-1.8 5.26,-5.41l0 -10.29 3.18 -1.66 0 12.05c0,2.62 -0.78,4.68 -2.32,6.17 -1.39,1.36 -3.27,2.06 -5.64,2.09l-2.61 0c-2.94,0 -5.08,-1.04 -6.4,-3.13 -1.36,2.09 -3.48,3.13 -6.35,3.13l-2.61 0c-2.94,0 -5.09,-1.04 -6.45,-3.13 -1.33,2.09 -3.46,3.13 -6.4,3.13l-3.32 0zm56.86 -2.28c0,5.75 -2.12,9.36 -6.35,10.81 -1.01,0.35 -2.09,0.52 -3.22,0.52 -1.83,0 -3.6,-0.44 -5.31,-1.33l0 -2.8c1.61,0.89 3.26,1.33 4.93,1.33 1.33,0 2.5,-0.3 3.51,-0.9 2.21,-1.33 3.32,-3.81 3.32,-7.45l0 -16.55 3.13 -1.66 0 18.02zm4.74 2.28l1.52 -2.94 8.92 0c1.45,0 2.47,-0.36 3.06,-1.09 0.59,-0.73 0.88,-1.99 0.88,-3.79 0,-4.65 -2.04,-8.11 -6.12,-10.39l1.56 -2.61c5.03,2.91 7.59,7 7.68,12.28 0.03,3.73 1.85,5.6 5.46,5.6l1.47 0 0 2.94 -1.8 0c-2.75,0 -4.85,-0.92 -6.31,-2.75 -1.07,1.83 -2.86,2.75 -5.36,2.75l-10.95 0zm53.3 -2.94l1.61 0 0 2.94 -2.04 0c-2.88,0 -5.03,-0.99 -6.45,-2.99 -1.58,2.62 -3.98,3.94 -7.21,3.94 -3.26,0 -5.66,-1.3 -7.21,-3.89 -1.45,1.96 -3.62,2.94 -6.5,2.94l-2.04 0 0 -2.94 1.66 0c3.48,0 5.22,-1.8 5.22,-5.41l0 -1.61c0,-3.64 0.88,-6.42 2.65,-8.35 1.55,-1.71 3.62,-2.56 6.21,-2.56 2.97,0 5.23,1.11 6.78,3.32 1.36,1.9 2.04,4.43 2.04,7.59l0 1.61c0,3.6 1.75,5.41 5.27,5.41zm-14.08 0.95c1.74,0 3.11,-0.72 4.13,-2.16 1.01,-1.44 1.52,-3.39 1.52,-5.86 0,-5.31 -1.88,-7.97 -5.64,-7.97 -3.79,0 -5.69,2.66 -5.69,7.97 0,5.34 1.9,8.01 5.69,8.01zm14.75 1.99l0 -2.94 1.33 0c3.6,0 5.41,-1.87 5.41,-5.6l0 -20.39 3.18 -1.66 0 22.1c0,2.69 -0.79,4.81 -2.37,6.35 -1.49,1.42 -3.45,2.13 -5.88,2.13l-1.66 0zm18.45 0l0 -28.93 3.18 -1.66 0 30.59 -3.18 0z"/>
   </g>
   <rect class="fil3" x="0" y="-0" width="913.82" height="274.15"/>
  </g>
 </g>
</svg>
